[gd_scene load_steps=6 format=2]

[ext_resource path="res://scripts/particles/beam.gd" type="Script" id=1]
[ext_resource path="res://images/particles/beam_thin.png" type="Texture" id=2]
[ext_resource path="res://sounds/attacks/sfx_weapon_singleshot14.wav" type="AudioStream" id=3]

[sub_resource type="CanvasItemMaterial" id=1]
blend_mode = 1

[sub_resource type="Animation" id=2]
resource_name = "beam"
length = 0.7
step = 0.05
tracks/0/type = "value"
tracks/0/path = NodePath("Sprite:frame")
tracks/0/interp = 1
tracks/0/loop_wrap = true
tracks/0/imported = false
tracks/0/enabled = true
tracks/0/keys = {
"times": PoolRealArray( 0, 0.04, 0.08, 0.12, 0.2, 0.24, 0.28, 0.32, 0.4, 0.44, 0.48, 0.52 ),
"transitions": PoolRealArray( 1, 1, 1, 1, 1, 1, 1, 1, 1, 1, 1, 1 ),
"update": 1,
"values": [ 0, 1, 2, 3, 0, 1, 2, 3, 0, 1, 2, 3 ]
}
tracks/1/type = "method"
tracks/1/path = NodePath(".")
tracks/1/interp = 1
tracks/1/loop_wrap = true
tracks/1/imported = false
tracks/1/enabled = true
tracks/1/keys = {
"times": PoolRealArray( 0.7 ),
"transitions": PoolRealArray( 1 ),
"values": [ {
"args": [  ],
"method": "queue_free"
} ]
}
tracks/2/type = "value"
tracks/2/path = NodePath("Sound:playing")
tracks/2/interp = 1
tracks/2/loop_wrap = true
tracks/2/imported = false
tracks/2/enabled = true
tracks/2/keys = {
"times": PoolRealArray( 0, 0.2, 0.4 ),
"transitions": PoolRealArray( 1, 1, 1 ),
"update": 2,
"values": [ true, true, true ]
}
tracks/3/type = "value"
tracks/3/path = NodePath("Sprite:self_modulate")
tracks/3/interp = 1
tracks/3/loop_wrap = true
tracks/3/imported = false
tracks/3/enabled = true
tracks/3/keys = {
"times": PoolRealArray( 0, 0.1, 0.5, 0.6 ),
"transitions": PoolRealArray( 1, 1, 1, 1 ),
"update": 0,
"values": [ Color( 1, 1, 1, 0 ), Color( 1, 1, 1, 1 ), Color( 1, 1, 1, 1 ), Color( 1, 1, 1, 0 ) ]
}

[node name="Beam" type="Node2D"]
scale = Vector2( 1, 0.75 )
script = ExtResource( 1 )

[node name="Sprite" type="Sprite" parent="."]
modulate = Color( 1, 0.12549, 0.0941176, 1 )
self_modulate = Color( 1, 1, 1, 0 )
material = SubResource( 1 )
texture = ExtResource( 2 )
offset = Vector2( 16, 0 )
vframes = 4

[node name="Sound" type="AudioStreamPlayer2D" parent="."]
stream = ExtResource( 3 )
attenuation = 0.0
bus = "Sound"

[node name="AnimationPlayer" type="AnimationPlayer" parent="."]
autoplay = "beam"
anims/beam = SubResource( 2 )
