[gd_scene load_steps=4 format=2]

[ext_resource path="res://scripts/particles/shot_base.gd" type="Script" id=1]
[ext_resource path="res://images/particles/webs.png" type="Texture" id=2]
[ext_resource path="res://sounds/attacks/sfx_sounds_impact3.wav" type="AudioStream" id=3]

[node name="Projectile" type="Node2D" index="0"]

scale = Vector2( 1, 0.75 )
script = ExtResource( 1 )
_sections_unfolded = [ "Transform" ]
speed = 0.6

[node name="Sprite" type="Sprite" parent="." index="0"]

texture = ExtResource( 2 )
flip_h = true
_sections_unfolded = [ "Offset", "Region", "Transform", "Visibility" ]

[node name="Sound" type="AudioStreamPlayer2D" parent="." index="1"]

stream = ExtResource( 3 )
volume_db = 0.0
pitch_scale = 1.0
autoplay = false
max_distance = 2000.0
attenuation = 0.0
bus = "Sound"
area_mask = 1

[node name="Sound2" type="AudioStreamPlayer2D" parent="." index="2"]

stream = null
volume_db = 0.0
pitch_scale = 1.0
autoplay = true
max_distance = 2000.0
attenuation = 0.0
bus = "Sound"
area_mask = 1


