[gd_scene load_steps=5 format=2]

[ext_resource path="res://images/particles/muzzle_flash_01.png" type="Texture" id=1]
[ext_resource path="res://sounds/attacks/sfx_weapon_singleshot2.wav" type="AudioStream" id=2]

[sub_resource type="CanvasItemMaterial" id=1]

render_priority = 0
blend_mode = 1
light_mode = 0

[sub_resource type="Animation" id=2]

resource_name = "animation"
length = 0.7
loop = false
step = 0.05
tracks/0/type = "value"
tracks/0/path = NodePath(".:modulate")
tracks/0/interp = 1
tracks/0/loop_wrap = true
tracks/0/imported = false
tracks/0/enabled = true
tracks/0/keys = {
"times": PoolRealArray( 0, 0.05, 0.1, 0.15 ),
"transitions": PoolRealArray( 1, 1, 1, 1 ),
"update": 0,
"values": [ Color( 1, 1, 1, 0 ), Color( 1, 1, 1, 1 ), Color( 1, 1, 1, 1 ), Color( 1, 1, 1, 0 ) ]
}
tracks/1/type = "value"
tracks/1/path = NodePath(".:scale")
tracks/1/interp = 1
tracks/1/loop_wrap = true
tracks/1/imported = false
tracks/1/enabled = true
tracks/1/keys = {
"times": PoolRealArray( 0, 0.15 ),
"transitions": PoolRealArray( 1, 1 ),
"update": 0,
"values": [ Vector2( 0.5, 1 ), Vector2( 1.5, 1 ) ]
}
tracks/2/type = "value"
tracks/2/path = NodePath("Sound:playing")
tracks/2/interp = 1
tracks/2/loop_wrap = true
tracks/2/imported = false
tracks/2/enabled = true
tracks/2/keys = {
"times": PoolRealArray( 0 ),
"transitions": PoolRealArray( 1 ),
"update": 2,
"values": [ true ]
}
tracks/3/type = "method"
tracks/3/path = NodePath(".")
tracks/3/interp = 1
tracks/3/loop_wrap = true
tracks/3/imported = false
tracks/3/enabled = true
tracks/3/keys = {
"times": PoolRealArray( 0.7 ),
"transitions": PoolRealArray( 1 ),
"values": [ {
"args": [  ],
"method": "queue_free"
} ]
}

[node name="Flash" type="Sprite" index="0"]

modulate = Color( 1, 1, 1, 0 )
light_mask = 0
material = SubResource( 1 )
scale = Vector2( 0.5, 1 )
z_index = 1
texture = ExtResource( 1 )
offset = Vector2( 8, 0 )
flip_h = true
_sections_unfolded = [ "Animation", "Material", "Offset", "Transform", "Visibility", "Z Index" ]

[node name="Sound" type="AudioStreamPlayer2D" parent="." index="0"]

stream = ExtResource( 2 )
volume_db = -4.0
pitch_scale = 1.0
autoplay = false
max_distance = 2000.0
attenuation = 0.0
bus = "Sound"
area_mask = 1

[node name="AnimationPlayer" type="AnimationPlayer" parent="." index="1"]

root_node = NodePath("..")
autoplay = "animation"
playback_process_mode = 1
playback_default_blend_time = 0.0
playback_speed = 1.0
anims/animation = SubResource( 2 )
blend_times = [  ]


