[gd_scene load_steps=3 format=2]

[ext_resource path="res://images/particles/smoke.png" type="Texture" id=1]

[sub_resource type="Animation" id=2]
resource_name = "animation"
step = 0.05
tracks/0/type = "value"
tracks/0/path = NodePath(".:frame")
tracks/0/interp = 1
tracks/0/loop_wrap = true
tracks/0/imported = false
tracks/0/enabled = true
tracks/0/keys = {
"times": PoolRealArray( 0, 1 ),
"transitions": PoolRealArray( 1, 1 ),
"update": 0,
"values": [ 0, 55 ]
}
tracks/1/type = "method"
tracks/1/path = NodePath(".")
tracks/1/interp = 1
tracks/1/loop_wrap = true
tracks/1/imported = false
tracks/1/enabled = true
tracks/1/keys = {
"times": PoolRealArray( 1 ),
"transitions": PoolRealArray( 1 ),
"values": [ {
"args": [  ],
"method": "queue_free"
} ]
}

[node name="Smoke" type="Sprite"]
light_mask = 0
z_index = 1
texture = ExtResource( 1 )
offset = Vector2( 0, -2 )
flip_h = true
vframes = 7
hframes = 8

[node name="AnimationPlayer" type="AnimationPlayer" parent="."]
autoplay = "animation"
anims/animation = SubResource( 2 )
