[gd_resource type="BitmapFont" load_steps=3 format=2]

[ext_resource path="res://images/fonts/Alfabeto_2x.png" type="Texture" id=1]
[ext_resource path="res://images/fonts/Alfabeto_additions_2x.png" type="Texture" id=2]

[resource]

textures = [ ExtResource( 1 ), ExtResource( 2 ), ExtResource( 1 ), ExtResource( 2 ), ExtResource( 1 ), ExtResource( 2 ), ExtResource( 1 ), ExtResource( 2 ), ExtResource( 1 ), ExtResource( 2 ), ExtResource( 1 ), ExtResource( 2 ), ExtResource( 1 ), ExtResource( 2 ), ExtResource( 1 ), ExtResource( 2 ), ExtResource( 1 ), ExtResource( 2 ), ExtResource( 1 ), ExtResource( 2 ), ExtResource( 1 ), ExtResource( 2 ), ExtResource( 1 ), ExtResource( 2 ), ExtResource( 1 ), ExtResource( 2 ), ExtResource( 1 ), ExtResource( 2 ), ExtResource( 1 ), ExtResource( 2 ), ExtResource( 1 ), ExtResource( 2 ), ExtResource( 1 ), ExtResource( 2 ), ExtResource( 1 ), ExtResource( 2 ), ExtResource( 1 ), ExtResource( 2 ), ExtResource( 1 ), ExtResource( 2 ), ExtResource( 1 ), ExtResource( 2 ), ExtResource( 1 ), ExtResource( 2 ), ExtResource( 1 ), ExtResource( 2 ), ExtResource( 1 ), ExtResource( 2 ), ExtResource( 1 ), ExtResource( 2 ), ExtResource( 1 ), ExtResource( 2 ), ExtResource( 1 ), ExtResource( 2 ), ExtResource( 1 ), ExtResource( 2 ), ExtResource( 1 ), ExtResource( 2 ), ExtResource( 1 ), ExtResource( 2 ), ExtResource( 1 ), ExtResource( 2 ), ExtResource( 1 ), ExtResource( 2 ), ExtResource( 1 ), ExtResource( 2 ), ExtResource( 1 ), ExtResource( 2 ), ExtResource( 1 ), ExtResource( 2 ), ExtResource( 1 ), ExtResource( 2 ), ExtResource( 1 ), ExtResource( 2 ), ExtResource( 1 ), ExtResource( 2 ), ExtResource( 1 ), ExtResource( 2 ), ExtResource( 1 ), ExtResource( 2 ), ExtResource( 1 ), ExtResource( 2 ), ExtResource( 1 ), ExtResource( 2 ), ExtResource( 1 ), ExtResource( 2 ) ]
chars = PoolIntArray( 48, 0, 434, 2, 10, 14, 0, 0, 10, 112, 0, 188, 2, 10, 14, 0, 0, 10, 80, 0, 188, 2, 10, 14, 0, 0, 10, 32, 0, 464, 2, 6, 14, 0, 0, 6, 49, 0, 326, 2, 10, 14, 0, 0, 10, 97, 0, 4, 2, 10, 14, 0, 0, 10, 65, 0, 4, 2, 10, 14, 0, 0, 10, 113, 0, 200, 2, 12, 14, 0, 0, 12, 81, 0, 200, 2, 12, 14, 0, 0, 12, 33, 0, 446, 2, 6, 14, 0, 0, 6, 50, 0, 338, 2, 10, 14, 0, 0, 10, 98, 0, 16, 2, 10, 14, 0, 0, 10, 66, 0, 16, 2, 10, 14, 0, 0, 10, 114, 0, 214, 2, 10, 14, 0, 0, 10, 82, 0, 214, 2, 10, 14, 0, 0, 10, 51, 0, 350, 2, 10, 14, 0, 0, 10, 99, 0, 28, 2, 10, 14, 0, 0, 10, 67, 0, 28, 2, 10, 14, 0, 0, 10, 115, 0, 226, 2, 10, 14, 0, 0, 10, 83, 0, 226, 2, 10, 14, 0, 0, 10, 52, 0, 362, 2, 10, 14, 0, 0, 10, 100, 0, 40, 2, 10, 14, 0, 0, 10, 68, 0, 40, 2, 10, 14, 0, 0, 10, 116, 0, 238, 2, 10, 14, 0, 0, 10, 84, 0, 238, 2, 10, 14, 0, 0, 10, 53, 0, 374, 2, 10, 14, 0, 0, 10, 101, 0, 52, 2, 10, 14, 0, 0, 10, 69, 0, 52, 2, 10, 14, 0, 0, 10, 117, 0, 250, 2, 10, 14, 0, 0, 10, 85, 0, 250, 2, 10, 14, 0, 0, 10, 54, 0, 386, 2, 10, 14, 0, 0, 10, 102, 0, 64, 2, 10, 14, 0, 0, 10, 70, 0, 64, 2, 10, 14, 0, 0, 10, 118, 0, 262, 2, 10, 14, 0, 0, 10, 86, 0, 262, 2, 10, 14, 0, 0, 10, 55, 0, 398, 2, 10, 14, 0, 0, 10, 103, 0, 76, 2, 10, 14, 0, 0, 10, 71, 0, 76, 2, 10, 14, 0, 0, 10, 119, 0, 274, 2, 14, 14, 0, 0, 14, 87, 0, 274, 2, 14, 14, 0, 0, 14, 56, 0, 410, 2, 10, 14, 0, 0, 10, 104, 0, 88, 2, 10, 14, 0, 0, 10, 72, 0, 88, 2, 10, 14, 0, 0, 10, 120, 0, 290, 2, 10, 14, 0, 0, 10, 88, 0, 290, 2, 10, 14, 0, 0, 10, 40, 1, 66, 2, 8, 14, 0, 0, 8, 57, 0, 422, 2, 10, 14, 0, 0, 10, 41, 1, 76, 2, 8, 14, 0, 0, 8, 105, 0, 100, 2, 10, 14, 0, 0, 10, 73, 0, 100, 2, 10, 14, 0, 0, 10, 121, 0, 302, 2, 10, 14, 0, 0, 10, 89, 0, 302, 2, 10, 14, 0, 0, 10, 106, 0, 112, 2, 10, 14, 0, 0, 10, 74, 0, 112, 2, 10, 14, 0, 0, 10, 122, 0, 314, 2, 10, 14, 0, 0, 10, 90, 0, 314, 2, 10, 14, 0, 0, 10, 58, 1, 2, 2, 6, 14, 0, 0, 6, 107, 0, 124, 2, 10, 14, 0, 0, 10, 75, 0, 124, 2, 10, 14, 0, 0, 10, 59, 1, 2, 2, 6, 14, 0, 0, 6, 43, 1, 42, 2, 10, 14, 0, 0, 10, 60, 1, 86, 2, 10, 14, 0, 0, 10, 108, 0, 136, 2, 10, 14, 0, 0, 10, 76, 0, 136, 2, 10, 14, 0, 0, 10, 44, 0, 446, 10, 6, 6, 0, 8, 6, 92, 1, 20, 2, 8, 14, 0, 0, 8, 45, 1, 54, 2, 10, 14, 0, 0, 10, 77, 0, 148, 2, 14, 14, 0, 0, 14, 109, 0, 148, 2, 14, 14, 0, 0, 14, 62, 1, 98, 2, 10, 14, 0, 0, 10, 46, 0, 446, 10, 6, 6, 0, 8, 6, 78, 0, 164, 2, 10, 14, 0, 0, 10, 110, 0, 164, 2, 10, 14, 0, 0, 10, 47, 1, 10, 2, 8, 14, 0, 0, 8, 95, 1, 30, 2, 10, 14, 0, 0, 10, 63, 0, 454, 2, 10, 14, 0, 0, 10, 79, 0, 176, 2, 10, 14, 0, 0, 10, 111, 0, 176, 2, 10, 14, 0, 0, 10 )
kernings = PoolIntArray(  )
height = 15.0
ascent = 0.0
distance_field = false

