[gd_scene load_steps=2 format=2]

[ext_resource path="res://images/map/arm01_right.png" type="Texture" id=1]

[node name="Sprite" type="Sprite"]

texture = ExtResource( 1 )
offset = Vector2( 1, 6 )
_sections_unfolded = [ "Offset" ]

[node name="Hand3" type="Position2D" parent="." index="0"]

position = Vector2( 2, 13 )
_sections_unfolded = [ "Transform" ]


