[gd_scene load_steps=2 format=2]

[ext_resource path="res://images/map/arm01_left.png" type="Texture" id=1]

[node name="Sprite" type="Sprite" index="0"]

texture = ExtResource( 1 )
offset = Vector2( 0, 6 )
_sections_unfolded = [ "Offset" ]

[node name="Weapon2" type="Position2D" parent="." index="0"]

position = Vector2( -2, -1 )
_sections_unfolded = [ "Transform" ]

[node name="Hand3" type="Position2D" parent="." index="1"]

position = Vector2( 3, 13 )
_sections_unfolded = [ "Transform" ]


