[gd_scene load_steps=2 format=2]

[ext_resource path="res://images/map/base03.png" type="Texture" id=1]

[node name="Sprite" type="Sprite"]
texture = ExtResource( 1 )
offset = Vector2( -1, -14 )

[node name="Head1" type="Position2D" parent="."]
position = Vector2( 1, -21 )

[node name="Weapon5" type="Position2D" parent="."]
position = Vector2( 5, -18 )

[node name="Weapon6" type="Position2D" parent="."]
position = Vector2( 5, -15 )

[node name="Arm2" type="Position2D" parent="."]
position = Vector2( -8, -18 )

[node name="Leg3" type="Position2D" parent="."]
show_behind_parent = true
position = Vector2( -3, -6 )

[node name="Leg4" type="Position2D" parent="."]
show_behind_parent = true
position = Vector2( 4, -6 )
