[gd_scene load_steps=4 format=2]

[ext_resource path="res://images/map/bug.png" type="Texture" id=1]

[sub_resource type="Animation" id=3]

resource_name = "die"
length = 0.1
loop = false
step = 0.1
tracks/0/type = "value"
tracks/0/path = NodePath(".:frame")
tracks/0/interp = 1
tracks/0/loop_wrap = true
tracks/0/imported = false
tracks/0/enabled = true
tracks/0/keys = {
"times": PoolRealArray( 0 ),
"transitions": PoolRealArray( 1 ),
"update": 1,
"values": [ 3 ]
}

[sub_resource type="Animation" id=2]

resource_name = "walk"
length = 0.4
loop = true
step = 0.1
tracks/0/type = "value"
tracks/0/path = NodePath(".:frame")
tracks/0/interp = 1
tracks/0/loop_wrap = true
tracks/0/imported = false
tracks/0/enabled = true
tracks/0/keys = {
"times": PoolRealArray( 0, 0.1, 0.2, 0.3 ),
"transitions": PoolRealArray( 1, 1, 1, 1 ),
"update": 1,
"values": [ 0, 1, 2, 1 ]
}

[node name="Sprite" type="Sprite" index="0"]

texture = ExtResource( 1 )
offset = Vector2( 0, -4 )
hframes = 4
_sections_unfolded = [ "Animation", "Offset" ]

[node name="Animation" type="AnimationPlayer" parent="." index="0"]

root_node = NodePath("..")
autoplay = ""
playback_process_mode = 1
playback_default_blend_time = 0.0
playback_speed = 1.0
anims/die = SubResource( 3 )
anims/walk = SubResource( 2 )
blend_times = [  ]


