[gd_scene load_steps=2 format=2]

[ext_resource path="res://images/map/cybernetic_rat.png" type="Texture" id=1]

[node name="Sprite" type="Sprite" index="0"]

texture = ExtResource( 1 )
offset = Vector2( 0, -4 )
_sections_unfolded = [ "Animation", "Offset" ]

[node name="Animation" type="AnimationPlayer" parent="." index="0"]

root_node = NodePath("..")
autoplay = ""
playback_process_mode = 1
playback_default_blend_time = 0.0
playback_speed = 1.0
blend_times = [  ]


