[gd_scene load_steps=4 format=2]

[ext_resource path="res://images/map/jet01_right.png" type="Texture" id=1]
[ext_resource path="res://images/map/jet01_glow_right.png" type="Texture" id=2]

[sub_resource type="CanvasItemMaterial" id=1]

render_priority = 0
blend_mode = 1
light_mode = 0

[node name="Sprite" type="Sprite" index="0"]

texture = ExtResource( 1 )
offset = Vector2( 0, 2 )
_sections_unfolded = [ "Offset" ]

[node name="Glow" type="Sprite" parent="." index="0"]

material = SubResource( 1 )
position = Vector2( 0, 4 )
texture = ExtResource( 2 )
offset = Vector2( 0, 2 )
_sections_unfolded = [ "Offset" ]


