[gd_scene load_steps=2 format=2]

[ext_resource path="res://images/map/leg01_right.png" type="Texture" id=1]

[node name="Sprite" type="Sprite" index="0"]

texture = ExtResource( 1 )
offset = Vector2( 0, 3 )
_sections_unfolded = [ "Offset" ]

[node name="Weapon2" type="Position2D" parent="." index="0"]

show_behind_parent = true
position = Vector2( 1, 8 )
_sections_unfolded = [ "Transform", "Visibility" ]

[node name="Propulsion3" type="Position2D" parent="." index="1"]

show_behind_parent = true
position = Vector2( 1, 8 )
_sections_unfolded = [ "Transform", "Visibility" ]


