[gd_scene load_steps=2 format=2]

[ext_resource path="res://images/map/long_sword.png" type="Texture" id=1]

[node name="Sprite" type="Sprite" index="0"]

texture = ExtResource( 1 )
offset = Vector2( 5, -5 )


