[gd_scene load_steps=2 format=2]

[ext_resource path="res://images/map/pistol01.png" type="Texture" id=1]

[node name="Sprite" type="Sprite"]

texture = ExtResource( 1 )
offset = Vector2( 1, -2 )
_sections_unfolded = [ "Offset" ]


