[gd_scene load_steps=2 format=2]

[ext_resource path="res://images/map/scythe.png" type="Texture" id=1]

[node name="Sprite" type="Sprite"]
texture = ExtResource( 1 )
offset = Vector2( 6, -3 )

[node name="Weapon2" type="Position2D" parent="."]
position = Vector2( 2, -5 )
