[gd_scene load_steps=2 format=2]

[ext_resource path="res://images/map/shoulder01_right.png" type="Texture" id=1]

[node name="Sprite" type="Sprite"]

texture = ExtResource( 1 )
offset = Vector2( 0, -1 )
_sections_unfolded = [ "Offset" ]

[node name="Weapon1" type="Position2D" parent="." index="0"]

position = Vector2( 0, -1 )
_sections_unfolded = [ "Transform" ]

[node name="Arm2" type="Position2D" parent="." index="1"]

show_behind_parent = true
_sections_unfolded = [ "Transform", "Visibility" ]


