[gd_scene load_steps=2 format=2]

[ext_resource path="res://images/map/weapon01_left.png" type="Texture" id=1]

[node name="Sprite" type="Sprite"]

texture = ExtResource( 1 )
offset = Vector2( -3, 0 )
_sections_unfolded = [ "Offset" ]

[node name="Weapon1" type="Position2D" parent="." index="0"]

_sections_unfolded = [ "Transform" ]


