[gd_scene load_steps=5 format=2]

[ext_resource path="res://images/particles/fangs.png" type="Texture" id=1]
[ext_resource path="res://sounds/attacks/sfx_wpn_sword2.wav" type="AudioStream" id=2]

[sub_resource type="CanvasItemMaterial" id=1]
blend_mode = 1

[sub_resource type="Animation" id=2]
resource_name = "animation"
length = 0.5
step = 0.05
tracks/0/type = "value"
tracks/0/path = NodePath(".:frame")
tracks/0/interp = 1
tracks/0/loop_wrap = true
tracks/0/imported = false
tracks/0/enabled = true
tracks/0/keys = {
"times": PoolRealArray( 0, 0.2 ),
"transitions": PoolRealArray( 1, 1 ),
"update": 0,
"values": [ 0, 9 ]
}
tracks/1/type = "value"
tracks/1/path = NodePath(".:modulate")
tracks/1/interp = 1
tracks/1/loop_wrap = true
tracks/1/imported = false
tracks/1/enabled = true
tracks/1/keys = {
"times": PoolRealArray( 0, 0.05, 0.15, 0.2 ),
"transitions": PoolRealArray( 1, 1, 1, 1 ),
"update": 0,
"values": [ Color( 1, 1, 1, 0 ), Color( 1, 1, 1, 1 ), Color( 1, 1, 1, 1 ), Color( 1, 1, 1, 0 ) ]
}
tracks/2/type = "value"
tracks/2/path = NodePath("Sound:playing")
tracks/2/interp = 1
tracks/2/loop_wrap = true
tracks/2/imported = false
tracks/2/enabled = true
tracks/2/keys = {
"times": PoolRealArray( 0 ),
"transitions": PoolRealArray( 1 ),
"update": 2,
"values": [ true ]
}
tracks/3/type = "method"
tracks/3/path = NodePath(".")
tracks/3/interp = 1
tracks/3/loop_wrap = true
tracks/3/imported = false
tracks/3/enabled = true
tracks/3/keys = {
"times": PoolRealArray( 0.5 ),
"transitions": PoolRealArray( 1 ),
"values": [ {
"args": [  ],
"method": "queue_free"
} ]
}

[node name="Hit" type="Sprite"]
modulate = Color( 1, 1, 1, 0 )
self_modulate = Color( 0.878431, 0.580392, 0.235294, 0.501961 )
light_mask = 0
material = SubResource( 1 )
z_index = 1
texture = ExtResource( 1 )
vframes = 2
hframes = 5

[node name="Sound" type="AudioStreamPlayer2D" parent="."]
stream = ExtResource( 2 )
attenuation = 0.0
bus = "Sound"

[node name="AnimationPlayer" type="AnimationPlayer" parent="."]
autoplay = "animation"
anims/animation = SubResource( 2 )
