[gd_scene load_steps=3 format=2]

[ext_resource path="res://images/tiles/mountains01_snow_c.png" type="Texture" id=1]
[ext_resource path="res://images/tiles/mountains01_n.png" type="Texture" id=2]

[node name="Mountains" type="Sprite"]

texture = ExtResource( 1 )
normal_map = ExtResource( 2 )
offset = Vector2( 0, -6 )
_sections_unfolded = [ "Offset", "Transform", "Visibility" ]


