[gd_scene load_steps=3 format=2]

[ext_resource path="res://images/tiles/tree03_c.png" type="Texture" id=1]
[ext_resource path="res://images/tiles/tree03_n.png" type="Texture" id=2]

[node name="Tree" type="Sprite" index="0"]

texture = ExtResource( 1 )
normal_map = ExtResource( 2 )
offset = Vector2( 0, -16 )
_sections_unfolded = [ "Offset", "Transform", "Visibility" ]


